4 Tidy Data | A Minimal Introduction to Data Management
…
library(tidyverse)
library(readxl) #while readxl is part of the tidyverse and installed when you install the tidyverse, it isn't a core package, so you have to call it separately

# See what sheets are in the Excel workbook
excel_sheets("data/pracdatasheet.xlsx")

## [1] "Sites"        "Traits"       "Species"      "RangeLimits"  "RangeSpecies"

# Read in data
edat <- read_xlsx("data/pracdatasheet.xlsx", sheet = "Sites")

# Print a summary of the data (WARNING - doing this is usually a bad idea when not using tidyverse packages - it would usually show you all the data...)
edat

## # A tibble: 24 × 8
##    Site      Point SitePoint PercentBareSoil SoilPH SoilColour  Dung Densiometer
##    <chr>     <chr> <chr>               <dbl>  <dbl> <chr>      <dbl>       <dbl>
##  1 grass     SE    grass_SE                0   4.6  7.5YR3/2       0          15
##  2 renoster… SE    renoster…               5   5.4  10YR3/2        3          14
##  3 invasion  SE    invasion…               0   3.79 10YR2/1        0           0
##  4 sand      SE    sand_SE                10   4.82 10YR6/4        0           5
##  5 sandstone SE    sandston…               5   4.91 10YR3/2        0           2
##  6 limestone SE    limeston…               0   6.48 10YR2/1        0           9
##  7 grass     NE    grass_NE                0   5.13 10YR2/2        0          13
##  8 renoster… NE    renoster…              30   5.7  7.5YR4/3       2          20
##  9 invasion  NE    invasion…               5   3.7  10YR5/1        0           0
## 10 sand      NE    sand_NE                 8   4.54 10YR4/3        0           4
## # … with 14 more rows
…
